…
How many aisles are there, and which aisles are the most items ordered
from?

``` r
instacart %>% group_by(aisle_id) %>% 
  summarise(n_obs = n(), n_unique = n_distinct(aisle_id)) %>% 
  arrange(desc(n_obs))
## # A tibble: 134 x 3
##    aisle_id  n_obs n_unique
##       <int>  <int>    <int>
##  1       83 150609        1
##  2       24 150473        1
##  3      123  78493        1
##  4      120  55240        1
##  5       21  41699        1
##  6      115  36617        1
##  7       84  32644        1
##  8      107  31269        1
##  9       91  26240        1
## 10      112  23635        1
## # … with 124 more rows
```
…
